{
    "key": "group_5dec95839cc68",
    "title": "Events Item Settings",
    "fields": [
        {
            "key": "field_5decd1feac80f",
            "label": "Background Hero",
            "name": "hero_background",
            "type": "image",
            "instructions": "",
            "required": 0,
            "conditional_logic": 0,
            "wrapper": {
                "width": "",
                "class": "",
                "id": ""
            },
            "return_format": "array",
            "preview_size": "medium",
            "library": "all",
            "min_width": "",
            "min_height": "",
            "min_size": "",
            "max_width": "",
            "max_height": "",
            "max_size": "",
            "mime_types": ""
        },
        {
            "key": "field_5decd2d5282e6",
            "label": "Thumbnail",
            "name": "event_thumbnail",
            "type": "image",
            "instructions": "",
            "required": 0,
            "conditional_logic": 0,
            "wrapper": {
                "width": "",
                "class": "",
                "id": ""
            },
            "return_format": "array",
            "preview_size": "medium",
            "library": "all",
            "min_width": "",
            "min_height": "",
            "min_size": "",
            "max_width": "",
            "max_height": "",
            "max_size": "",
            "mime_types": ""
        },
        {
            "key": "field_5e041e1edbaa1",
            "label": "Excerpt",
            "name": "nav_excerpt",
            "type": "textarea",
            "instructions": "Excerpt text that will be used in navigation.",
            "required": 0,
            "conditional_logic": 0,
            "wrapper": {
                "width": "",
                "class": "",
                "id": ""
            },
            "default_value": "",
            "placeholder": "",
            "maxlength": "",
            "rows": 2,
            "new_lines": ""
        },
        {
            "key": "field_5decd16efbcce",
            "label": "Date",
            "name": "event_date",
            "type": "date_picker",
            "instructions": "",
            "required": 0,
            "conditional_logic": 0,
            "wrapper": {
                "width": "50",
                "class": "",
                "id": ""
            },
            "display_format": "M j, Y",
            "return_format": "M j, Y",
            "first_day": 0
        },
        {
            "key": "field_5e0219fddaa6c",
            "label": "CTA",
            "name": "cta",
            "type": "link",
            "instructions": "Please add an external event full path link including <code>http:\/\/ or https:\/<\/code>, if no external link provided, the current event will be used.",
            "required": 0,
            "conditional_logic": 0,
            "wrapper": {
                "width": "50",
                "class": "",
                "id": ""
            },
            "return_format": "array"
        }
    ],
    "location": [
        [
            {
                "param": "post_type",
                "operator": "==",
                "value": "post"
            },
            {
                "param": "post_category",
                "operator": "==",
                "value": "category:events"
            }
        ]
    ],
    "menu_order": 0,
    "position": "normal",
    "style": "default",
    "label_placement": "top",
    "instruction_placement": "label",
    "hide_on_screen": "",
    "active": 1,
    "description": "",
    "modified": 1589812189
}