<svg width="48" height="48" viewBox="0 0 48 48" fill="none" xmlns="http://www.w3.org/2000/svg">
<path d="M-2.15681e-06 24.671L24.5106 48L46.541 48L23.4894 24.671L48 1.28515e-05L24.5106 1.0798e-05L-2.15681e-06 24.671Z" fill="#003B70"/>
</svg>
